Chapter 7 Answers | Introduction to R
…
A2

table(mpg[mpg$class=="suv","manufacturer"])

## 
##  chevrolet      dodge       ford       jeep land rover    lincoln    mercury 
##          9          7          9          8          4          3          4 
##     nissan     subaru     toyota 
##          4          6          8

A3

mpg[grepl("auto",mpg$trans)&mpg$cyl==4,]

## # A tibble: 41 x 11
##    manufacturer model    displ  year   cyl trans  drv     cty   hwy fl    class 
##    <chr>        <chr>    <dbl> <int> <int> <chr>  <chr> <int> <int> <chr> <chr> 
##  1 audi         a4         1.8  1999     4 auto(~ f        18    29 p     compa~
##  2 audi         a4         2    2008     4 auto(~ f        21    30 p     compa~
##  3 audi         a4 quat~   1.8  1999     4 auto(~ 4        16    25 p     compa~
##  4 audi         a4 quat~   2    2008     4 auto(~ 4        19    27 p     compa~
##  5 chevrolet    malibu     2.4  1999     4 auto(~ f        19    27 r     midsi~
##  6 chevrolet    malibu     2.4  2008     4 auto(~ f        22    30 r     midsi~
##  7 dodge        caravan~   2.4  1999     4 auto(~ f        18    24 r     miniv~
##  8 honda        civic      1.6  1999     4 auto(~ f        24    32 r     subco~
##  9 honda        civic      1.6  1999     4 auto(~ f        24    32 r     subco~
## 10 honda        civic      1.8  2008     4 auto(~ f        25    36 r     subco~
## # ... with 31 more rows
…
